{
   "swagger":"2.0",
   "info":{
      "description":"IFX Services for Metropolitan",
      "version":"0.0.1",
      "title":"IFX Services for Metropolitan"
   },
   "host":"localhost:8091",
   "tags":[
      {
         "name":"acct-service-controller",
         "description":"Acct Service Controller"
      }
   ],
   "paths":{
      "/Accounts":{
         "post":{
            "tags":[
               "acct-service-controller"
            ],
            "summary":"accountInquiry",
            "operationId":"accountInquiryUsingPOST",
            "consumes":[
               "application/json"
            ],
            "produces":[
               "*/*"
            ],
            "parameters":[
               {
                  "in":"body",
                  "name":"AcctInqRq",
                  "description":"AcctInqRq",
                  "required":true,
                  "schema":{
                     "$ref":"#/definitions/AcctInqRq"
                  }
               }
            ],
            "responses":{
               "200":{
                  "description":"OK",
                  "schema":{
                     "$ref":"#/definitions/AcctInqRs"
                  }
               },
               "201":{
                  "description":"Created"
               },
               "401":{
                  "description":"Unauthorized"
               },
               "403":{
                  "description":"Forbidden"
               },
               "404":{
                  "description":"Not Found"
               }
            },
            "security": [
               {
                  "mcb_auth": []
               }
            ],
            "deprecated":false
         }
      }
   },
   "securityDefinitions": {
      "mcb_auth": {
         "type": "oauth2",
         "flow": "password"
      }
   },
   "definitions":{
      "Accrual":{
         "type":"object",
         "properties":{
            "AccrualFrequency":{
               "type":"object",
               "properties": {
                  "RecurType": {
                     "type": "string"
                  }
               }
            },
            "AccrualOnBalance":{
               "type":"string"
            }
         },
         "title":"AccrualFrequency"
      },
      "AcctBal":{
         "type":"object",
         "properties":{
            "BalType":{
               "$ref":"#/definitions/BalType"
            },
            "CurAmt":{
               "$ref":"#/definitions/CurAmt"
            },
            "Desc":{
               "type":"string"
            },
            "ExpDt":{
               "type":"string"
            }
         },
         "title":"AcctBal"
      },
      "AcctInfo":{
         "type":"object",
         "properties":{
            "AcctBal":{
               "type":"array",
               "items":{
                  "$ref":"#/definitions/AcctBal"
               }
            },
            "AcctDtlStatus":{
               "type":"string"
            },
            "AcctMemoData":{
               "type":"array",
               "items":{
                  "$ref":"#/definitions/AcctMemoData"
               }
            },
            "AcctPeriodData":{
               "type":"array",
               "items":{
                  "$ref":"#/definitions/AcctPeriodData"
               }
            },
            "AcctStmtData":{
               "$ref":"#/definitions/AcctStmtData"
            },
            "AcctTitleOption":{
               "type":"string"
            },
            "AcctType":{
               "$ref":"#/definitions/AcctType"
            },
            "AcctUse":{
               "type":"string"
            },
            "CashMgmtRelData":{
               "$ref":"#/definitions/CashMgmtRelData"
            },
            "DateData":{
               "type":"array",
               "items":{
                  "$ref":"#/definitions/DateData"
               }
            },
            "DepAcctData":{
               "$ref":"#/definitions/DepAcctData"
            },
            "Desc":{
               "type":"string"
            },
            "DocDistributionOption":{
               "type":"string"
            },
            "EmployeeInd":{
               "type":"string"
            },
            "Fee":{
               "type":"array",
               "items":{
                  "$ref":"#/definitions/Fee"
               }
            },
            "OpenDt":{
               "type":"string",
               "format":"date-time"
            },
            "OriginatingBranch":{
               "type":"string"
            },
            "OverdraftData":{
               "$ref":"#/definitions/OverdraftData"
            },
            "ProductIdent":{
               "type":"string"
            },
            "Rate":{
               "type":"string"
            },
            "RelationshipMgr":{
               "type":"array",
               "items":{
                  "$ref":"#/definitions/RelationshipMgr"
               }
            },
            "RelationshipPricingAcctData":{
               "$ref":"#/definitions/RelationshipPricingAcctData"
            },
            "SvcChgData":{
               "$ref":"#/definitions/SvcChgData"
            },
            "TaxIncentiveType":{
               "type":"string"
            },
            "TrnRestriction":{
               "type":"string"
            },
            "WithholdingOption":{
               "type":"string"
            }
         },
         "title":"AcctInfo"
      },
      "AcctInqRq":{
         "type":"object",
         "properties":{
            "AcctInqRq": {
               "type": "object",
               "properties": {
                  "AcctSel":{
                     "$ref":"#/definitions/AcctSel"
                  },
                  "EFXHdr":{
                     "$ref":"#/definitions/EFXHdr"
                  }
               }
            }
         },
         "title":"AcctInqRq"
      },
      "AcctInqRs":{
         "type":"object",
         "properties":{
            "AcctInqRs": {
               "type": "object",
               "properties": {
                  "AcctRec":{
                     "$ref":"#/definitions/AcctRec"
                  },
                  "EFXHdr":{
                     "$ref":"#/definitions/EFXHdr"
                  },
                  "EFXStatus":{
                     "$ref":"#/definitions/Status"
                  }
               }
            }
         },
         "title":"AcctInqRs"
      },
      "AcctKeys":{
         "type":"object",
         "properties":{
            "AcctId":{
               "type":"string"
            },
            "AcctType":{
               "$ref":"#/definitions/AcctType"
            }
         },
         "title":"AcctKeys"
      },
      "AcctMemoData":{
         "type":"object",
         "properties":{
            "AcctMemoCode":{
               "type":"string"
            },
            "AcctMemoIdent":{
               "type":"string"
            },
            "AcctMemoType":{
               "type":"string"
            }
         },
         "title":"AcctMemoData"
      },
      "AcctPeriodData":{
         "type":"object",
         "properties":{
            "AcctAmtType":{
               "type":"string"
            },
            "AcctPeriodType":{
               "type":"string"
            },
            "Amt":{
               "type":"string"
            },
            "Count":{
               "type":"string"
            },
            "EffDt":{
               "type":"string"
            },
            "ExpDt":{
               "type":"string"
            },
            "LastOccurInd":{
               "type":"boolean"
            },
            "LastOccuranceDt":{
               "type":"string"
            }
         },
         "title":"AcctPeriodData"
      },
      "AcctRec":{
         "type":"object",
         "properties":{
            "AcctId":{
               "type":"string"
            },
            "AcctInfo":{
               "$ref":"#/definitions/AcctInfo"
            },
            "AcctStatus":{
               "$ref":"#/definitions/AcctStatus"
            }
         },
         "title":"AcctRec"
      },
      "AcctSel":{
         "type":"object",
         "properties":{
            "AcctId":{
               "type":"string"
            },
            "AcctType":{
               "$ref":"#/definitions/AcctType"
            }
         },
         "title":"AcctSel"
      },
      "AcctStatus":{
         "type":"object",
         "properties":{
            "AcctStatusCode":{
               "type":"string"
            },
            "EffDt":{
               "type":"string"
            }
         },
         "title":"AcctStatus"
      },
      "AcctStmtData":{
         "type":"object",
         "properties":{
            "CombinedStmtCode":{
               "type":"string"
            },
            "CombinedStmtIdent":{
               "type":"string"
            },
            "LastStmtDt":{
               "type":"string"
            },
            "StmtTimeFrame":{
               "$ref":"#/definitions/StmtTimeFrame"
            }
         },
         "title":"AcctStmtData"
      },
      "AcctType":{
         "type":"object",
         "properties":{
            "AcctTypeSource":{
               "type":"string"
            },
            "AcctTypeValue":{
               "type":"string"
            }
         },
         "title":"AcctType"
      },
      "AtmPosOverDraft":{
         "type":"object",
         "properties":{
            "AuthLimitOption":{
               "type":"string"
            },
            "OptInOutDt":{
               "type":"string"
            }
         },
         "title":"AtmPosOverDraft"
      },
      "BalType":{
         "type":"object",
         "properties":{
            "BalTypeSource":{
               "type":"string"
            },
            "BalTypeValues":{
               "type":"string"
            }
         },
         "title":"BalType"
      },
      "CashMgmtRelData":{
         "type":"object",
         "properties":{
            "CashMgmtRelType":{
               "type":"string"
            },
            "SweepAcctKeys":{
               "$ref":"#/definitions/SweepAcctKeys"
            }
         },
         "title":"CashMgmtRelData"
      },
      "Client":{
         "type":"object",
         "properties":{
            "Organization":{
               "$ref":"#/definitions/Organization"
            },
            "ClientAppIdent": {
               "type": "string"
            }
         },
         "title":"Client"
      },
      "CurAmt":{
         "type":"object",
         "properties":{
            "Amt":{
               "type":"string"
            },
            "CurCode":{
               "$ref":"#/definitions/CurCode"
            }
         },
         "title":"CurAmt"
      },
      "CurCode":{
         "type":"object",
         "properties":{
            "CurCodeType":{
               "type":"string"
            },
            "CurCodeValue":{
               "type":"string"
            }
         },
         "title":"CurCode"
      },
      "DateData":{
         "type":"object",
         "properties":{
            "DateType":{
               "type":"string"
            },
            "DateValue":{
               "type":"string"
            }
         },
         "title":"DateData"
      },
      "DepAcctData":{
         "type":"object",
         "properties":{
            "IntDispData":{
               "$ref":"#/definitions/IntDispData"
            }
         },
         "title":"DepAcctData"
      },
      "EFXHdr":{
         "type":"object",
         "properties":{
            "Client":{
               "$ref":"#/definitions/Client"
            },
            "Tracking":{
               "$ref":"#/definitions/Tracking"
            },
            "Version":{
               "type":"string"
            }
         },
         "title":"EFXHdr"
      },
      "Fee":{
         "type":"object",
         "properties":{
            "FeeIdent":{
               "type":"string"
            },
            "FeeOption":{
               "type":"string"
            },
            "FeeType":{
               "type":"string"
            }
         },
         "title":"Fee"
      },
      "IntDispData":{
         "type":"object",
         "properties":{
            "LastIntPmtDt":{
               "type":"string"
            }
         },
         "title":"IntDispData"
      },
      "IntRateData":{
         "type":"array",
         "items":{
            "$ref": "#/definitions/Accrual"
         },

         "title":"IntRateData"
      },
      "Organization":{
         "type":"object",
         "properties":{
            "OrgId":{
               "type":"string"
            }
         },
         "title":"Organization"
      },
      "OverdraftData":{
         "type":"object",
         "properties":{
            "AtmPosOverDraft":{
               "$ref":"#/definitions/AtmPosOverDraft"
            },
            "OverDraftTypeCode":{
               "type":"string"
            }
         },
         "title":"OverdraftData"
      },
      "RecurRule":{
         "type":"object",
         "properties":{
            "RecurInterval":{
               "type":"integer",
               "format":"int64"
            },
            "RecurType":{
               "type":"string"
            }
         },
         "title":"RecurRule"
      },
      "RelationshipMgr":{
         "type":"object",
         "properties":{
            "Desc":{
               "type":"string"
            },
            "RelationshipMgrIdent":{
               "type":"string"
            },
            "RelationshipRole":{
               "type":"string"
            }
         },
         "title":"RelationshipMgr"
      },
      "RelationshipPricingAcctData":{
         "type":"object",
         "properties":{
            "RelationshipPricingRateOpt":{
               "type":"string"
            }
         },
         "title":"RelationshipPricingAcctData"
      },
      "Status":{
         "type":"object",
         "properties":{
            "ns1:Severity":{
               "type":"string"
            },
            "ns1:StatusCode":{
               "type":"string"
            },
            "ns1:StatusDesc":{
               "type":"string"
            },
            "ns1:SvcProviderName":{
               "type":"string"
            }
         },
         "title":"Status"
      },
      "StmtTimeFrame":{
         "type":"object",
         "properties":{
            "RecurRule":{
               "type":"array",
               "items":{
                  "$ref":"#/definitions/RecurRule"
               }
            }
         },
         "title":"StmtTimeFrame"
      },
      "SvcChgAcctRef":{
         "type":"object",
         "properties":{
            "AcctKeys":{
               "$ref":"#/definitions/AcctKeys"
            }
         },
         "title":"SvcChgAcctRef"
      },
      "SvcChgData":{
         "type":"object",
         "properties":{
            "SvcChgAcctRef":{
               "$ref":"#/definitions/SvcChgAcctRef"
            },
            "SvcChgFlatFee":{
               "$ref":"#/definitions/SvcChgFlatFee"
            },
            "SvcChgMethod":{
               "type":"array",
               "items":{
                  "$ref":"#/definitions/SvcChgMethod"
               }
            },
            "SvcChgTimeFrame":{
               "$ref":"#/definitions/SvcChgTimeFrame"
            }
         },
         "title":"SvcChgData"
      },
      "SvcChgFlatFee":{
         "type":"object",
         "properties":{
            "SvcChgFlatFeeAmt":{
               "type":"array",
               "items":{
                  "$ref":"#/definitions/SvcChgFlatFeeAmt"
               }
            }
         },
         "title":"SvcChgFlatFee"
      },
      "SvcChgFlatFeeAmt":{
         "type":"object",
         "properties":{
            "Amt":{
               "type":"string"
            }
         },
         "title":"SvcChgFlatFeeAmt"
      },
      "SvcChgMethod":{
         "type":"object",
         "properties":{
            "SvcChgMethodOpt":{
               "type":"string"
            },
            "SvcChgMethodType":{
               "type":"string"
            }
         },
         "title":"SvcChgMethod"
      },
      "SvcChgTimeFrame":{
         "type":"object",
         "properties":{
            "RecurType":{
               "type":"string"
            }
         },
         "title":"SvcChgTimeFrame"
      },
      "SweepAcctKeys":{
         "type":"object",
         "properties":{
            "AcctId":{
               "type":"string"
            },
            "AcctType":{
               "$ref":"#/definitions/AcctType"
            }
         },
         "title":"SweepAcctKeys"
      },
      "Tracking":{
         "type":"object",
         "properties":{
            "OriginatingTrnId":{
               "type":"string"
            },
            "ParentTrnId":{
               "type":"string"
            },
            "TrnId":{
               "type":"string"
            }
         },
         "title":"Tracking"
      }
   }
}
