{
   "swagger":"2.0",
   "info":{
      "description":"IFX Services for Metropolitan",
      "version":"0.0.1",
      "title":"IFX Services for Metropolitan"
   },
   "host":"localhost:8091",
   "basePath":"/efxService/v0_1",
   "tags":[
      {
         "name":"acct-trn-service-controller",
         "description":"Acct Trn Service Controller"
      }
   ],
   "paths":{
      "/AcctTrn":{
         "post":{
            "tags":[
               "acct-trn-service-controller"
            ],
            "summary":"acctTrnInq",
            "operationId":"acctTrnInqUsingPOST",
            "consumes":[
               "application/json"
            ],
            "produces":[
               "*/*"
            ],
            "parameters":[
               {
                  "in":"body",
                  "name":"AcctTrnInqRq",
                  "description":"AcctTrnInqRq",
                  "required":true,
                  "schema":{
                     "$ref":"#/definitions/AcctTrnInqRq"
                  }
               }
            ],
            "responses":{
               "200":{
                  "description":"OK",
                  "schema":{
                     "$ref":"#/definitions/AcctTrnInqRs"
                  }
               },
               "201":{
                  "description":"Created"
               },
               "401":{
                  "description":"Unauthorized"
               },
               "403":{
                  "description":"Forbidden"
               },
               "404":{
                  "description":"Not Found"
               }
            },
            "security": [
               {
                  "mcb_auth": []
               }
            ],
            "deprecated":false
         }
      }
   },
   "securityDefinitions": {
      "mcb_auth": {
         "type": "oauth2",
         "flow": "password"
      }
   },
   "definitions":{
      "AcctKeys":{
         "type":"object",
         "properties":{
            "AcctId":{
               "type":"string"
            },
            "AcctType":{
               "$ref":"#/definitions/AcctType"
            }
         },
         "title":"AcctKeys"
      },
      "AcctRef":{
         "type":"object",
         "properties":{
            "AcctKeys":{
               "$ref":"#/definitions/AcctKeys"
            }
         },
         "title":"AcctRef"
      },
      "AcctTrnInfo":{
         "type":"object",
         "properties":{
            "AcctRef":{
               "$ref":"#/definitions/AcctRef"
            },
            "BranchIdent":{
               "type":"string"
            },
            "Desc":{
               "type":"string"
            },
            "DrCrType":{
               "type":"string"
            },
            "EffDt":{
               "type":"string"
            },
            "ExternalTrnCode":{
               "type":"string"
            },
            "PostedDt":{
               "type":"string"
            },
            "StmtRunningBal":{
               "type":"array",
               "items":{
                  "$ref":"#/definitions/StmtRunningBal"
               }
            },
            "TellerIdent":{
               "type":"string"
            },
            "TrnAmt":{
               "$ref":"#/definitions/TrnAmt"
            },
            "TrnCode":{
               "type":"string"
            },
            "TrnDt":{
               "type":"string"
            },
            "TrnRevType":{
               "type":"string"
            },
            "TrnSrc":{
               "type":"string"
            }
         },
         "title":"AcctTrnInfo"
      },
      "AcctTrnInqRq":{
         "type":"object",
         "properties":{
            "AcctTrnInqRq": {
               "type": "object",
               "properties": {
                  "AcctTrnSel":{
                     "$ref":"#/definitions/AcctTrnSel"
                  },
                  "EFXHdr":{
                     "$ref":"#/definitions/EFXHdr"
                  },
                  "RecCtrlIn":{
                     "$ref":"#/definitions/RecCtrlIn"
                  }
               }
            }
         },
         "title":"AcctTrnInqRq"
      },
      "AcctTrnInqRs":{
         "type":"object",
         "properties":{
            "AcctTrnInqRs":{
               "type":"object",
               "properties":{
                  "AcctTrnRec":{
                     "type":"array",
                     "items":{
                        "$ref":"#/definitions/AcctTrnRec"
                     }
                  },
                  "EFXHdr":{
                     "$ref":"#/definitions/EFXHdr"
                  },
                  "EFXStatus":{
                     "$ref":"#/definitions/Status"
                  },
                  "RecCtrlOut":{
                     "$ref":"#/definitions/RecCtrlOut"
                  }
               }
            }
         },
         "title":"AcctTrnInqRs"
      },
      "AcctTrnRec":{
         "type":"object",
         "properties":{
            "AcctTrnId":{
               "type":"string"
            },
            "AcctTrnInfo":{
               "$ref":"#/definitions/AcctTrnInfo"
            },
            "AcctTrnStatus":{
               "$ref":"#/definitions/AcctTrnStatus"
            }
         },
         "title":"AcctTrnRec"
      },
      "AcctTrnSel":{
         "type":"object",
         "properties":{
            "AcctKeys":{
               "$ref":"#/definitions/AcctKeys"
            },
            "BranchIdent":{
               "type":"string"
            },
            "ChkNumRange":{
               "$ref":"#/definitions/ChkNumRange"
            },
            "CurAmtRange":{
               "$ref":"#/definitions/CurAmtRange"
            },
            "DtRange":{
               "type":"array",
               "items":{
                  "$ref":"#/definitions/DtRange"
               }
            },
            "PeriodType":{
               "type":"string"
            },
            "SortOrder":{
               "type":"string"
            },
            "TellerIdet":{
               "type":"string"
            },
            "TrnSrc":{
               "type":"string"
            },
            "TrnType":{
               "type":"string"
            }
         },
         "title":"AcctTrnSel"
      },
      "AcctTrnStatus":{
         "type":"object",
         "properties":{
            "AcctTrnStatusCode":{
               "type":"string"
            },
            "EffDt":{
               "type":"string"
            }
         },
         "title":"AcctTrnStatus"
      },
      "AcctType":{
         "type":"object",
         "properties":{
            "AcctTypeSource":{
               "type":"string"
            },
            "AcctTypeValue":{
               "type":"string"
            }
         },
         "title":"AcctType"
      },
      "ChkNumRange":{
         "type":"object",
         "properties":{
            "ChkNumEnd":{
               "type":"string"
            },
            "ChkNumStart":{
               "type":"string"
            }
         },
         "title":"ChkNumRange"
      },
      "Client":{
         "type":"object",
         "properties":{
            "Organization":{
               "$ref":"#/definitions/Organization"
            },
            "ClientAppIdent":{
               "type": "string"
            }
         },
         "title":"Client"
      },
      "CurAmtRange":{
         "type":"object",
         "properties":{
            "HighCurAmt":{
               "$ref":"#/definitions/HighCurAmt"
            },
            "LowCurAmt":{
               "$ref":"#/definitions/LowCurAmt"
            }
         },
         "title":"CurAmtRange"
      },
      "CurCode":{
         "type":"object",
         "properties":{
            "CurCodeType":{
               "type":"string"
            },
            "CurCodeValue":{
               "type":"string"
            }
         },
         "title":"CurCode"
      },
      "DtRange":{
         "type":"object",
         "properties":{
            "ToDate":{
               "type":"string"
            },
            "FromDate":{
               "type":"string"
            }
         },
         "title":"DtRange"
      },
      "EFXHdr":{
         "type":"object",
         "properties":{
            "Client":{
               "$ref":"#/definitions/Client"
            },
            "Tracking":{
               "$ref":"#/definitions/Tracking"
            },
            "Version":{
               "type":"string"
            }
         },
         "title":"EFXHdr"
      },
      "HighCurAmt":{
         "type":"object",
         "properties":{
            "Amt":{
               "type":"string"
            }
         },
         "title":"HighCurAmt"
      },
      "LowCurAmt":{
         "type":"object",
         "properties":{
            "Amt":{
               "type":"string"
            }
         },
         "title":"LowCurAmt"
      },
      "Organization":{
         "type":"object",
         "properties":{
            "OrgId":{
               "type":"string"
            }
         },
         "title":"Organization"
      },
      "RecCtrlIn":{
         "type":"object",
         "properties":{
            "Cursor":{
               "type":"string"
            }
         },
         "title":"RecCtrlIn"
      },
      "RecCtrlOut":{
         "type":"object",
         "properties":{
            "Cursor":{
               "type":"string"
            },
            "MatchedRecCount":{
               "type":"string"
            },
            "RemainRecCount":{
               "type":"string"
            },
            "SentRecCount":{
               "type":"string"
            }
         },
         "title":"RecCtrlOut"
      },
      "Status":{
         "type":"object",
         "properties":{
            "OvrdExceptionInd":{
               "type":"string"
            },
            "ServerStatusCode":{
               "type":"string"
            },
            "ServerStatusDesc":{
               "type":"string"
            },
            "Severity":{
               "type":"string"
            },
            "StatusCode":{
               "type":"string"
            },
            "StatusDesc":{
               "type":"string"
            },
            "SvcProviderName":{
               "type":"string"
            }
         },
         "title":"Status"
      },
      "StmtRunningBal":{
         "type":"object",
         "properties":{
            "Amt":{
               "type":"number",
               "format":"float"
            },
            "CurCode":{
               "$ref":"#/definitions/CurCode"
            },
            "StmtRunningBalType":{
               "type":"string"
            }
         },
         "title":"StmtRunningBal"
      },
      "Tracking":{
         "type":"object",
         "properties":{
            "OriginatingTrnId":{
               "type":"string"
            },
            "ParentTrnId":{
               "type":"string"
            },
            "TrnId":{
               "type":"string"
            }
         },
         "title":"Tracking"
      },
      "TrnAmt":{
         "type":"object",
         "properties":{
            "Amt":{
               "type":"string"
            }
         },
         "title":"TrnAmt"
      }
   }
}
